{
  "development": {
    "username": "zahra",
    "password": "123",
    "database": "mini_project_database_development",
    "host": "127.0.0.1",
    "dialect": "postgres"
  },
  "test": {
    "username": "root",
    "password": null,
    "database": "database_test",
    "host": "127.0.0.1",
    "dialect": "mysql"
  },
  "production": {
    "username": "root",
    "password": null,
    "database": "database_production",
    "host": "127.0.0.1",
    "dialect": "mysql"
  }
}
